!!!This is Sprint0 review meeting demo!!!
     [==========] Running Sprint0 demo()!
!*****************  CORE0 Transfer weights by DMARF! *****************!
[   First Node by DMARF  ]
744 "[    OK    ] == r_atmlib_InitializeCNNCL(clData, clData->top_addr, clData->size, clData->cnn_data)" 
746 "[    OK    ] == r_atmlib_CNNPictureProlog(clData, NULL, 0U)" 
748 "[    OK    ] == r_atmlib_CNNLayerProlog(clData ,0U ,0U ,R_ATMLIB_CNN_SCRESMODE_0 ,0U ,0U)" 
758 "[    OK    ] == r_atmlib_CNNSetupARI( clData, &cnnipConfig->ariParam, NULL)" 
761 "[    OK    ] == r_atmlib_CNNSetupWeights( clData ,&cnnipConfig->weightDMARF ,NULL)" 
765 "[    OK    ] == r_atmlib_CNNSetupARI( clData ,&cnnipConfig->ariParam ,NULL)" 
770 "[    OK    ] == r_atmlib_CNNSetupChannelDMAI( clData ,&cnnipConfig->dmaiParam ,cnnipConfig->clofsDMAI)" 
776 "[    OK    ] == r_atmlib_CNNSetupChannelDMAC( clData ,&cnnipConfig->dmacParam ,cnnipConfig->clofsDMAC)" 
790 "[    OK    ] == r_atmlib_CNNSetupBiases( clData ,cnnipConfig->biasData)" 
794 "[    OK    ] == r_atmlib_CNNSetupShifts( clData ,&cnnipConfig->shiftConfig ,cnnipConfig->shiftFunc)" 
800 "[    OK    ] == r_atmlib_CNNSetupLUT( clData, &cnnipConfig->lutDMARF, NULL)" 
809 "[    OK    ] == r_atmlib_CNNStartDMAI(clData)" 
812 "[    OK    ] == r_atmlib_CNNStartDMAC(clData)" 
815 "[    OK    ] == r_atmlib_CNNSetupChannelDMAO( clData ,&cnnipConfig->dmaoParam ,cnnipConfig->clofsDMAO)" 
818 "[    OK    ] == r_atmlib_CNNStartDMAO(clData)" 
821 "[    OK    ] == r_atmlib_CNNStartTile(clData)" 
830 "[    OK    ] == r_atmlib_CNNSetupWeights( clData ,&cnnipConfig->weightDMARF, NULL)" 
[   Common Node by DMARF ]
765 "[    OK    ] == r_atmlib_CNNSetupARI( clData ,&cnnipConfig->ariParam ,NULL)" 
770 "[    OK    ] == r_atmlib_CNNSetupChannelDMAI( clData ,&cnnipConfig->dmaiParam ,cnnipConfig->clofsDMAI)" 
776 "[    OK    ] == r_atmlib_CNNSetupChannelDMAC( clData ,&cnnipConfig->dmacParam ,cnnipConfig->clofsDMAC)" 
790 "[    OK    ] == r_atmlib_CNNSetupBiases( clData ,cnnipConfig->biasData)" 
794 "[    OK    ] == r_atmlib_CNNSetupShifts( clData ,&cnnipConfig->shiftConfig ,cnnipConfig->shiftFunc)" 
800 "[    OK    ] == r_atmlib_CNNSetupLUT( clData, &cnnipConfig->lutDMARF, NULL)" 
809 "[    OK    ] == r_atmlib_CNNStartDMAI(clData)" 
812 "[    OK    ] == r_atmlib_CNNStartDMAC(clData)" 
815 "[    OK    ] == r_atmlib_CNNSetupChannelDMAO( clData ,&cnnipConfig->dmaoParam ,cnnipConfig->clofsDMAO)" 
818 "[    OK    ] == r_atmlib_CNNStartDMAO(clData)" 
821 "[    OK    ] == r_atmlib_CNNStartTile(clData)" 
830 "[    OK    ] == r_atmlib_CNNSetupWeights( clData ,&cnnipConfig->weightDMARF, NULL)" 
[   Last  Node by DMARF  ]
765 "[    OK    ] == r_atmlib_CNNSetupARI( clData ,&cnnipConfig->ariParam ,NULL)" 
770 "[    OK    ] == r_atmlib_CNNSetupChannelDMAI( clData ,&cnnipConfig->dmaiParam ,cnnipConfig->clofsDMAI)" 
776 "[    OK    ] == r_atmlib_CNNSetupChannelDMAC( clData ,&cnnipConfig->dmacParam ,cnnipConfig->clofsDMAC)" 
790 "[    OK    ] == r_atmlib_CNNSetupBiases( clData ,cnnipConfig->biasData)" 
794 "[    OK    ] == r_atmlib_CNNSetupShifts( clData ,&cnnipConfig->shiftConfig ,cnnipConfig->shiftFunc)" 
800 "[    OK    ] == r_atmlib_CNNSetupLUT( clData, &cnnipConfig->lutDMARF, NULL)" 
809 "[    OK    ] == r_atmlib_CNNStartDMAI(clData)" 
812 "[    OK    ] == r_atmlib_CNNStartDMAC(clData)" 
815 "[    OK    ] == r_atmlib_CNNSetupChannelDMAO( clData ,&cnnipConfig->dmaoParam ,cnnipConfig->clofsDMAO)" 
818 "[    OK    ] == r_atmlib_CNNStartDMAO(clData)" 
821 "[    OK    ] == r_atmlib_CNNStartTile(clData)" 
837 "[    OK    ] == r_atmlib_CNNLayerEpilog( clData, 1U )" 
839 "[    OK    ] == r_atmlib_CNNPictureEpilog( clData, 1U, NULL)" 
841 "[    OK    ] == r_atmlib_CNNEndProcessing( clData, 0U )" 
!*****************  CORE1 Transfer weights by WPR!   *****************!
[   First Node by WPR    ]
744 "[    OK    ] == r_atmlib_InitializeCNNCL(clData, clData->top_addr, clData->size, clData->cnn_data)" 
746 "[    OK    ] == r_atmlib_CNNPictureProlog(clData, NULL, 0U)" 
748 "[    OK    ] == r_atmlib_CNNLayerProlog(clData ,0U ,0U ,R_ATMLIB_CNN_SCRESMODE_0 ,0U ,0U)" 
765 "[    OK    ] == r_atmlib_CNNSetupARI( clData ,&cnnipConfig->ariParam ,NULL)" 
770 "[    OK    ] == r_atmlib_CNNSetupChannelDMAI( clData ,&cnnipConfig->dmaiParam ,cnnipConfig->clofsDMAI)" 
776 "[    OK    ] == r_atmlib_CNNSetupChannelDMAC( clData ,&cnnipConfig->dmacParam ,cnnipConfig->clofsDMAC)" 
784 "[    OK    ] == r_atmlib_CNNSetupWeights( clData, NULL, &cnnipConfig->weightInfo)" 
790 "[    OK    ] == r_atmlib_CNNSetupBiases( clData ,cnnipConfig->biasData)" 
794 "[    OK    ] == r_atmlib_CNNSetupShifts( clData ,&cnnipConfig->shiftConfig ,cnnipConfig->shiftFunc)" 
805 "[    OK    ] == r_atmlib_CNNSetupLUT( clData, NULL, &cnnipConfig->lutInfo)" 
809 "[    OK    ] == r_atmlib_CNNStartDMAI(clData)" 
812 "[    OK    ] == r_atmlib_CNNStartDMAC(clData)" 
815 "[    OK    ] == r_atmlib_CNNSetupChannelDMAO( clData ,&cnnipConfig->dmaoParam ,cnnipConfig->clofsDMAO)" 
818 "[    OK    ] == r_atmlib_CNNStartDMAO(clData)" 
821 "[    OK    ] == r_atmlib_CNNStartTile(clData)" 
[   Common Node by WPR   ]
765 "[    OK    ] == r_atmlib_CNNSetupARI( clData ,&cnnipConfig->ariParam ,NULL)" 
770 "[    OK    ] == r_atmlib_CNNSetupChannelDMAI( clData ,&cnnipConfig->dmaiParam ,cnnipConfig->clofsDMAI)" 
776 "[    OK    ] == r_atmlib_CNNSetupChannelDMAC( clData ,&cnnipConfig->dmacParam ,cnnipConfig->clofsDMAC)" 
784 "[    OK    ] == r_atmlib_CNNSetupWeights( clData, NULL, &cnnipConfig->weightInfo)" 
790 "[    OK    ] == r_atmlib_CNNSetupBiases( clData ,cnnipConfig->biasData)" 
794 "[    OK    ] == r_atmlib_CNNSetupShifts( clData ,&cnnipConfig->shiftConfig ,cnnipConfig->shiftFunc)" 
805 "[    OK    ] == r_atmlib_CNNSetupLUT( clData, NULL, &cnnipConfig->lutInfo)" 
809 "[    OK    ] == r_atmlib_CNNStartDMAI(clData)" 
812 "[    OK    ] == r_atmlib_CNNStartDMAC(clData)" 
815 "[    OK    ] == r_atmlib_CNNSetupChannelDMAO( clData ,&cnnipConfig->dmaoParam ,cnnipConfig->clofsDMAO)" 
818 "[    OK    ] == r_atmlib_CNNStartDMAO(clData)" 
821 "[    OK    ] == r_atmlib_CNNStartTile(clData)" 
[   Last  Node by WPR    ]
765 "[    OK    ] == r_atmlib_CNNSetupARI( clData ,&cnnipConfig->ariParam ,NULL)" 
770 "[    OK    ] == r_atmlib_CNNSetupChannelDMAI( clData ,&cnnipConfig->dmaiParam ,cnnipConfig->clofsDMAI)" 
776 "[    OK    ] == r_atmlib_CNNSetupChannelDMAC( clData ,&cnnipConfig->dmacParam ,cnnipConfig->clofsDMAC)" 
784 "[    OK    ] == r_atmlib_CNNSetupWeights( clData, NULL, &cnnipConfig->weightInfo)" 
790 "[    OK    ] == r_atmlib_CNNSetupBiases( clData ,cnnipConfig->biasData)" 
794 "[    OK    ] == r_atmlib_CNNSetupShifts( clData ,&cnnipConfig->shiftConfig ,cnnipConfig->shiftFunc)" 
805 "[    OK    ] == r_atmlib_CNNSetupLUT( clData, NULL, &cnnipConfig->lutInfo)" 
809 "[    OK    ] == r_atmlib_CNNStartDMAI(clData)" 
812 "[    OK    ] == r_atmlib_CNNStartDMAC(clData)" 
815 "[    OK    ] == r_atmlib_CNNSetupChannelDMAO( clData ,&cnnipConfig->dmaoParam ,cnnipConfig->clofsDMAO)" 
818 "[    OK    ] == r_atmlib_CNNStartDMAO(clData)" 
821 "[    OK    ] == r_atmlib_CNNStartTile(clData)" 
837 "[    OK    ] == r_atmlib_CNNLayerEpilog( clData, 1U )" 
839 "[    OK    ] == r_atmlib_CNNPictureEpilog( clData, 1U, NULL)" 
841 "[    OK    ] == r_atmlib_CNNEndProcessing( clData, 0U )" 
     [==========] Successfully write CL!
